Array
(
    [Content-Type] => application/x-www-form-urlencoded
    [Accept] => */*
    [Content-Length] => 29
    [Connection] => close
    [X-Forwarded-For] => 52.29.126.136
    [Host] => laadkompas.nl
    [X-Accel-Internal] => /nginx_static_files
)

lead_00Q5J000003rMQ0UAM
Array
(
    [Content-Type] => application/x-www-form-urlencoded
    [Accept] => */*
    [Content-Length] => 29
    [Connection] => close
    [X-Forwarded-For] => 52.29.126.136
    [Host] => laadkompas.nl
    [X-Accel-Internal] => /nginx_static_files
    [Authorization] => a9af4898c86e5b8d9b1c657735e4c0ec8eb2c74b
)

lead_00Q5J000003rMQAUA2
