<svg xmlns="http://www.w3.org/2000/svg" width="70" height="50" viewBox="0 0 70 50">
    <g fill="none" fill-rule="evenodd">
        <path fill="#51B989" d="M0 0h45l25 25-25 25H0z"/>
        <path fill="#FFF" d="M21.392 23.368h-1.6l-.736 3.744h2.016v.944H18.88L18.304 31H17.28l.576-2.944H15.28L14.704 31H13.68l.576-2.944h-1.44v-.944h1.616l.736-3.744h-2.032v-.944h2.224l.544-2.816h1.024l-.544 2.816h2.576l.544-2.816h1.024l-.544 2.816h1.408v.944zm-3.36 3.744l.736-3.744h-2.576l-.736 3.744h2.576zm17.04 1.504V31H27.04v-2.208l3.712-3.872c.693-.725 1.04-1.403 1.04-2.032 0-.736-.437-1.104-1.312-1.104-.448 0-.92.088-1.416.264-.496.176-.995.43-1.496.76l-.944-2.128c.459-.373 1.053-.67 1.784-.888a7.745 7.745 0 0 1 2.232-.328c.821 0 1.539.13 2.152.392.613.261 1.088.635 1.424 1.12.336.485.504 1.053.504 1.704a4.07 4.07 0 0 1-.392 1.8c-.261.539-.707 1.144-1.336 1.816l-2.272 2.32h4.352z"/>
    </g>
</svg>
