<svg xmlns="http://www.w3.org/2000/svg" width="56" height="57" viewBox="0 0 56 57">
    <g fill="#51B989" fill-rule="evenodd">
        <path d="M14.89 43.41c-.08.797-.373 1.516-.338 2.33.091 2.13 1.556 3.742 3.347 4.724 2.332 1.278 5.478 1.917 9.439 1.917 3.46 0 6.743-.632 9.852-1.898 3.108-1.266 5.854-3.102 8.235-5.51 2.457-2.406 4.305-5.12 5.547-8.14 1.24-3.021 1.86-6.311 1.86-9.871 0-3.184-.651-6.28-1.954-9.289-1.304-3.008-3.146-5.69-5.528-8.047-2.407-2.33-5.114-4.105-8.122-5.32-3.01-1.216-6.18-1.824-9.514-1.824-3.385 0-6.58.614-9.589 1.842-3.008 1.229-5.716 3.022-8.122 5.378-2.407 2.432-4.257 5.208-5.547 8.329-1.291 3.12-1.937 6.411-1.937 9.871 0 2.883.533 5.64 1.599 8.272.6 1.483 1.326 2.945 2.24 4.26.51.735 1.067 1.436 1.605 2.15.231.308 1.597 1.8.938 2.018-.917.303-1.873-.094-2.583-.681-.577-.476-1.28-1.304-2.107-2.481-1.303-1.906-2.33-4.131-3.083-6.675C.376 32.22 0 29.669 0 27.112c0-3.61.696-7.045 2.087-10.303 1.39-3.26 3.44-6.218 6.148-8.875 2.607-2.581 5.566-4.55 8.875-5.904C20.418.677 23.928 0 27.639 0c3.685 0 7.195.69 10.529 2.068 3.334 1.379 6.317 3.36 8.95 5.942 2.657 2.631 4.693 5.596 6.11 8.893 1.416 3.297 2.125 6.749 2.125 10.36 0 3.76-.695 7.307-2.088 10.642-1.39 3.333-3.416 6.305-6.072 8.911-2.632 2.608-5.635 4.595-9.006 5.96-3.372 1.367-6.938 2.05-10.699 2.05-4.638 0-8.354-.82-11.15-2.463-1.512-.888-2.887-2.107-3.616-3.733-.73-1.63-.838-3.692-.27-5.387.288-.862 1.016-1.466 1.92-.963.474.264.565.678.519 1.13" transform="translate(0 .7)"/>
        <path fill-rule="nonzero" d="M27.946 14.543c-9.977 0-18.2 5.034-18.2 11.55l.003.216c.092 3.241 2.24 6.18 5.796 8.268l.146.084-1.675 4.355-.03.087c-.238.81.554 1.575 1.371 1.276l8.326-3.054-.275-.04c1.476.236 2.997.358 4.538.358 9.977 0 18.2-5.035 18.2-11.55 0-6.516-8.223-11.55-18.2-11.55zm0 2.1c8.966 0 16.1 4.367 16.1 9.45 0 5.082-7.134 9.45-16.1 9.45-1.43 0-2.84-.113-4.205-.332l-.107-.012c-.143-.008-.286.013-.421.063l-6.407 2.349 1.176-3.057c.193-.502-.025-1.07-.504-1.313-3.584-1.82-5.632-4.432-5.632-7.148 0-5.083 7.134-9.45 16.1-9.45z" transform="translate(0 .7)"/>
        <path fill-rule="nonzero" d="M27.675 28.928c.201 0 .397.04.582.12.173.075.328.18.458.31.137.136.244.297.317.475.075.18.112.372.112.57 0 .203-.037.397-.113.576-.074.176-.18.335-.313.467-.136.135-.295.241-.476.316-.18.074-.37.11-.567.11-.196 0-.386-.036-.568-.11-.183-.075-.344-.184-.48-.324-.127-.131-.228-.285-.301-.457-.077-.18-.114-.375-.114-.578 0-.198.037-.39.113-.572.072-.173.173-.33.303-.463.132-.137.29-.244.47-.322.182-.079.376-.118.577-.118zm.234-8.167c.4 0 .776.059 1.127.179.358.121.676.299.947.53.276.237.495.527.654.864.159.342.237.72.237 1.127 0 .398-.061.756-.19 1.071-.12.29-.272.55-.46.777-.176.212-.372.398-.585.557l-.467.35c-.077.06-.146.117-.206.173l-.083.08-.18 1.534H26.68l-.047-.65-.076-1.072v-.068c0-.31.088-.603.264-.858.13-.187.29-.358.48-.517.16-.131.323-.257.492-.378.133-.096.256-.2.368-.313.09-.091.165-.193.224-.31.04-.076.062-.18.062-.32 0-.075-.012-.13-.034-.175-.028-.057-.062-.1-.102-.135-.051-.043-.113-.077-.192-.102-.09-.03-.19-.045-.301-.045-.177 0-.316.02-.418.055-.133.045-.239.093-.32.141-.072.044-.13.082-.176.115l-.041.032c-.19.153-.38.248-.627.248-.318 0-.596-.146-.778-.387l-.056-.084-.595-.949.42-.394c.152-.144.32-.278.501-.403.19-.132.396-.247.615-.346.225-.102.467-.181.729-.24.262-.059.542-.087.838-.087z" transform="translate(0 .7)"/>
    </g>
</svg>
