<svg xmlns="http://www.w3.org/2000/svg" width="89" height="93" viewBox="0 0 89 93">
    <g fill="none" fill-rule="evenodd">
        <path fill="#FFE094" d="M38.83 58.792h16.353V45.34H38.83z"/>
        <path stroke="#14192E" stroke-linecap="round" stroke-width="2" d="M38.83 58.792h16.353V45.34H38.83z"/>
        <path fill="#FFE094" d="M28.838 27.885c0-10.035 8.135-22.362 18.169-22.362 10.035 0 18.17 12.327 18.17 22.362 0 10.035-6.281 22.74-18.17 22.74-11.887 0-18.17-12.705-18.17-22.74"/>
        <path stroke="#14192E" stroke-linecap="round" stroke-width="2" d="M28.838 27.885c0-10.035 8.135-22.362 18.169-22.362 10.035 0 18.17 12.327 18.17 22.362 0 10.035-6.281 22.74-18.17 22.74-11.887 0-18.17-12.705-18.17-22.74z"/>
        <path fill="#FFCC39" d="M43.66 4.986c7.417-1.378 15.75 1.817 20.366 8.48 3.342 4.825 1.666 14.885 1.666 14.885s-1.12-12.286-10.609-12.602c-2.772-.093-4.119 1.553-7.83 1.553-4.33 0-5.595-1.196-8.368-1.553-2.419-.312-7.713-.302-10.187 12.068-.419 2.095-2.413-8.688 2.124-15.305 2.931-4.273 7.803-6.59 12.838-7.526"/>
        <path stroke="#14192E" stroke-linecap="round" stroke-width="1.5" d="M43.66 4.986c7.417-1.378 15.75 1.817 20.366 8.48 3.342 4.825 1.666 14.885 1.666 14.885s-1.12-12.286-10.609-12.602c-2.772-.093-4.119 1.553-7.83 1.553-4.33 0-5.595-1.196-8.368-1.553-2.419-.312-7.713-.302-10.187 12.068-.419 2.095-2.413-8.688 2.124-15.305 2.931-4.273 7.803-6.59 12.838-7.526zM43.153 40.8c.533.872 2.056 1.5 3.854 1.5s3.321-.628 3.854-1.5"/>
        <path fill="#14192E" d="M38.36 29.154a1.492 1.492 0 1 1 2.984 0 1.492 1.492 0 0 1-2.984 0"/>
        <path stroke="#14192E" stroke-linecap="round" d="M41.764 24.668c-.405-.398-1.11-.663-1.912-.663-.802 0-1.506.265-1.911.663"/>
        <path fill="#14192E" d="M52.67 29.154a1.492 1.492 0 1 1 2.984 0 1.492 1.492 0 0 1-2.984 0"/>
        <path stroke="#14192E" stroke-linecap="round" d="M56.073 24.668c-.405-.398-1.109-.663-1.912-.663-.802 0-1.506.265-1.91.663"/>
        <path stroke="#14192E" stroke-linecap="round" stroke-width="1.5" d="M45.692 33.887c-.21.884.75 1.845 1.862 1.684"/>
        <path fill="#51B989" d="M47.741 58.4c4.806 0 9.006-4.449 9.006-4.449 4.345 1.433 9.584 2.011 13.932 3.338 5.724 1.747 7.285 6.426 8.468 11.022.416 1.614 1.07 4.71 2.723 13.61H12.143c1.654-8.9 2.307-11.996 2.723-13.61 1.183-4.596 2.745-9.275 8.468-11.022 4.348-1.327 9.587-1.905 13.933-3.338 0 0 4.2 4.45 9.005 4.45h1.47z"/>
        <path stroke="#14192E" stroke-linecap="round" stroke-width="2" d="M47.741 58.4c4.806 0 9.006-4.449 9.006-4.449 4.345 1.433 9.584 2.011 13.932 3.338 5.724 1.747 7.285 6.426 8.468 11.022.416 1.614 1.07 4.71 2.723 13.61H12.143c1.654-8.9 2.307-11.996 2.723-13.61 1.183-4.596 2.745-9.275 8.468-11.022 4.348-1.327 9.587-1.905 13.933-3.338 0 0 4.2 4.45 9.005 4.45h1.47z"/>
        <path fill="#51B989" d="M67.417 20.326C67.417 7.187 56.017 1 46.435 1 37.08 1 27.063 6.9 26.597 19.412c-.018.5.395.914.896.914h39.924z"/>
        <path stroke="#14192E" stroke-linecap="round" stroke-width="2" d="M67.417 20.326C67.417 7.187 56.017 1 46.435 1 37.08 1 27.063 6.9 26.597 19.412c-.018.5.395.914.896.914h39.924z"/>
        <path fill="#51B989" d="M27.85 20.326h49.765"/>
        <path stroke="#14192E" stroke-linecap="round" stroke-width="2" d="M27.85 20.326h49.765"/>
        <path fill="#FFCC39" d="M73.273 79.944l2.526-4.548 1.173-2.11 2.527-4.548a6.837 6.837 0 0 0 7.186-3.406 6.838 6.838 0 0 0-.904-7.902l-3.337 6.006-3.87-2.149 3.338-6.006a6.837 6.837 0 0 0-7.187 3.406 6.84 6.84 0 0 0 .904 7.902l-2.526 4.547-1.173 2.111-2.526 4.548a6.838 6.838 0 0 0-7.187 3.406 6.838 6.838 0 0 0 .904 7.901l3.337-6.006 3.869 2.151-3.336 6.006a6.84 6.84 0 0 0 7.186-3.408 6.836 6.836 0 0 0-.904-7.9"/>
        <path stroke="#14192E" stroke-linecap="round" stroke-width="1.5" d="M73.273 79.944l2.526-4.548 1.173-2.11 2.527-4.548a6.837 6.837 0 0 0 7.186-3.406 6.838 6.838 0 0 0-.904-7.902l-3.337 6.006-3.87-2.149 3.338-6.006a6.837 6.837 0 0 0-7.187 3.406 6.84 6.84 0 0 0 .904 7.902l-2.526 4.547-1.173 2.111-2.526 4.548a6.838 6.838 0 0 0-7.187 3.406 6.838 6.838 0 0 0 .904 7.901l3.337-6.006 3.869 2.151-3.336 6.006a6.84 6.84 0 0 0 7.186-3.408 6.836 6.836 0 0 0-.904-7.9z"/>
        <path fill="#913709" d="M37.143 81.35l-23.903 9.2L1.293 59.513l23.903-9.2z"/>
        <path stroke="#14192E" stroke-linecap="round" stroke-width="2" d="M37.143 81.35l-23.903 9.2L1.293 59.513l23.903-9.2z"/>
        <path fill="#FFF" d="M33.12 78.952l-18.504 7.122-9.942-25.83 18.505-7.123z"/>
        <path stroke="#14192E" stroke-linecap="round" d="M33.12 78.952l-18.504 7.122-9.942-25.83 18.505-7.123z"/>
        <path fill="#FFCC39" d="M11.591 47.716a1.174 1.174 0 0 1 1.518.674l1.477 3.838 4.334.219c1.307.127 1.929.517 2.351 1.614l.633 1.644-14.527 5.59-.633-1.643c-.422-1.096-.222-1.803.663-2.773l3.068-3.07-1.477-3.836a1.176 1.176 0 0 1 .674-1.52l1.919-.737z"/>
        <path stroke="#14192E" stroke-linecap="round" d="M11.591 47.716a1.174 1.174 0 0 1 1.518.674l1.477 3.838 4.334.219c1.307.127 1.929.517 2.351 1.614l.633 1.644-14.527 5.59-.633-1.643c-.422-1.096-.222-1.803.663-2.773l3.068-3.07-1.477-3.836a1.176 1.176 0 0 1 .674-1.52l1.919-.737zM11.826 66.28l5.833-2.244M13.43 70.447l5.832-2.245M15.033 74.613l5.833-2.245M16.636 78.78l5.833-2.246"/>
        <path stroke="#51B989" stroke-linecap="round" d="M20.75 62.128l1.444.64.76-2.684M22.355 66.294l1.442.64.76-2.684M23.958 70.46l1.442.64.761-2.683M25.562 74.627l1.442.64.76-2.684"/>
        <path fill="#FFF" d="M65.141 68.01h-7.606a2 2 0 0 1-2-2v-.463a2 2 0 0 1 2-2h7.606a2 2 0 0 1 2 2v.464a2 2 0 0 1-2 2"/>
        <path stroke="#14192E" stroke-linecap="round" stroke-width="1.5" d="M65.141 68.01h-7.606a2 2 0 0 1-2-2v-.463a2 2 0 0 1 2-2h7.606a2 2 0 0 1 2 2v.464a2 2 0 0 1-2 2z"/>
    </g>
</svg>
