<svg xmlns="http://www.w3.org/2000/svg" xmlns:xlink="http://www.w3.org/1999/xlink" width="55" height="56" viewBox="0 0 55 56">
    <defs>
        <path id="prefix__a" d="M19.234 11.171L52.885 11.171 52.885 53.333 19.234 53.333z"/>
    </defs>
    <g fill="none" fill-rule="evenodd" transform="translate(.333 .333)">
        <path fill="#FFCC39" d="M13.773 18.559L20.201 24.667 4.444 53.333 37.339 36.996 30.911 30.89 46.667 2.222z"/>
        <path fill="#FFDF7D" d="M46.644 2.234L25.529 21.963 25.529 33.299 4.456 53.312 4.444 53.333 37.346 37 30.897 30.875 46.667 2.222z"/>
        <path fill="#51B787" d="M7.794 37.687C5.94 34.502 4.83 30.834 4.83 26.891c0-11.89 9.654-21.566 21.536-21.608l7.284-3.808C31.358.817 28.945.448 26.443.448 11.863.448 0 12.31 0 26.89c0 5.89 1.954 11.32 5.223 15.72l2.57-4.924z"/>
        <mask id="prefix__b" fill="#fff">
            <use xlink:href="#prefix__a"/>
        </mask>
        <path fill="#51B787" d="M45.09 16.094c1.854 3.185 2.964 6.854 2.964 10.797 0 11.89-9.656 21.567-21.536 21.607l-7.284 3.807c2.294.659 4.707 1.028 7.21 1.028 14.58 0 26.44-11.862 26.44-26.442 0-5.89-1.954-11.32-5.222-15.72l-2.571 4.923z" mask="url(#prefix__b)"/>
    </g>
</svg>
