<svg xmlns="http://www.w3.org/2000/svg" xmlns:xlink="http://www.w3.org/1999/xlink" width="48" height="47" viewBox="0 0 48 47">
    <defs>
        <path id="prefix__a" d="M0 0L47.445 0 47.445 46.597 0 46.597z"/>
    </defs>
    <g fill="none" fill-rule="evenodd">
        <mask id="prefix__b" fill="#fff">
            <use xlink:href="#prefix__a"/>
        </mask>
        <path fill="#FFF" d="M13.057 15.296h22.676L24.395 25.483 13.057 15.296zm32.567-.93c-1.214-2.802-2.96-5.321-5.238-7.558-2.256-2.195-4.814-3.878-7.67-5.05C29.857.586 26.848 0 23.69 0c-3.18 0-6.19.575-9.025 1.726-2.837 1.15-5.372 2.823-7.607 5.018-2.32 2.258-4.077 4.772-5.27 7.542-1.193 2.77-1.79 5.689-1.79 8.757 0 2.173.323 4.341.969 6.504.644 2.162 1.525 4.054 2.642 5.672.71 1.002 1.31 1.705 1.805 2.11.609.5 1.428.836 2.215.578.564-.185-.607-1.453-.805-1.714-.46-.608-.938-1.203-1.376-1.827-.782-1.119-1.405-2.361-1.92-3.62-.913-2.238-1.37-4.582-1.37-7.032 0-2.94.554-5.736 1.66-8.39 1.107-2.652 2.692-5.012 4.755-7.078 2.063-2.003 4.383-3.527 6.962-4.57 2.578-1.045 5.318-1.567 8.219-1.567 2.858 0 5.576.517 8.155 1.55 2.578 1.034 4.899 2.541 6.961 4.523 2.042 2.002 3.621 4.282 4.738 6.84 1.118 2.556 1.676 5.187 1.676 7.893 0 3.026-.531 5.822-1.594 8.39-1.065 2.567-2.649 4.873-4.755 6.919-2.041 2.045-4.394 3.606-7.059 4.682-2.664 1.076-5.48 1.614-8.445 1.614-3.395 0-6.091-.543-8.09-1.63-1.16-.63-2.289-1.518-2.68-2.82-.614-2.037.424-4.81 2.874-4.81H38.43c.776 0 1.392-.654 1.392-1.423V14.585c0-.786-.643-1.423-1.436-1.423H10.404c-.793 0-1.435.637-1.435 1.423V27.686c0 .637-.068 1.314.31 1.869.24.355.962.964 1.454.738.449-.208.388-1.099.388-1.48V16.532l13.274 11.927L37.67 16.53v16.551H16.863c-.636 0-1.28.003-1.91.096-1.658.242-3.041 1.292-3.842 2.745-.131.238-.245.486-.34.74-.548 1.46-.51 3.243.134 4.668.624 1.382 1.803 2.418 3.1 3.173 2.396 1.396 5.581 2.094 9.556 2.094 3.224 0 6.28-.581 9.17-1.742 2.89-1.162 5.463-2.85 7.72-5.066 2.277-2.216 4.013-4.74 5.205-7.574 1.192-2.834 1.79-5.85 1.79-9.045 0-3.068-.608-6.003-1.822-8.805z" mask="url(#prefix__b)"/>
    </g>
</svg>
