<svg xmlns="http://www.w3.org/2000/svg" xmlns:xlink="http://www.w3.org/1999/xlink" width="32" height="32" viewBox="0 0 32 32">
    <defs>
        <path id="a" d="M.062 0h31.92v31.874H.063z"/>
    </defs>
    <g fill="none" fill-rule="evenodd">
        <mask id="b" fill="#fff">
            <use xlink:href="#a"/>
        </mask>
        <path fill="#FFF" d="M24.038 12.917c.008.165.011.33.011.497 0 5.077-3.87 10.933-10.947 10.933-2.173 0-4.195-.637-5.897-1.726.3.035.607.053.917.053a7.727 7.727 0 0 0 4.779-1.645 3.851 3.851 0 0 1-3.594-2.669 3.843 3.843 0 0 0 1.737-.066 3.845 3.845 0 0 1-3.087-3.767l.001-.049a3.823 3.823 0 0 0 1.743.481A3.838 3.838 0 0 1 8.51 9.83a10.928 10.928 0 0 0 7.93 4.015 3.846 3.846 0 0 1 3.748-4.718c1.107 0 2.107.467 2.809 1.214a7.718 7.718 0 0 0 2.443-.933 3.857 3.857 0 0 1-1.692 2.126 7.687 7.687 0 0 0 2.21-.605 7.821 7.821 0 0 1-1.92 1.99zM16.023 0C7.208 0 .063 7.136.063 15.94c0 8.802 7.145 15.938 15.96 15.938 8.814 0 15.96-7.136 15.96-15.939S24.837 0 16.023 0z" mask="url(#b)"/>
    </g>
</svg>
